﻿Biomarker,IL-8,VEGF-A,OPG,TGF-beta-1,IL-6,CXCL9,CXCL1,IL-18,CSF-1
126-0weeks,7.63,11.51,10.2,8.83,3.52,6.16,9.45,7.91,8.41
126-6weeks,7.12,11.59,10.41,8.87,3.89,6.12,9.06,7.92,8.39
127-0weeks,6.93,10.92,10.3,6.59,2.73,6.14,7.31,7.95,8.4
127-6weeks,7.16,11.58,10.39,8.61,2.6,6.35,8.61,7.94,8.51
127-12months,6.87,11.13,10.25,7.44,3.92,6.15,8.79,7.94,8.46
128-0weeks,8.62,12.51,10.56,8.51,3.71,7.34,9.9,8.72,8.72
128-6weeks,6.94,11.5,10.51,7.46,3.84,7.14,8.57,8.62,8.51
128-12months,6.47,11.05,10.14,6.45,4.65,8,8.18,8.71,8.56
129-0weeks,8.16,11.16,10.61,8.76,3.85,5.81,9.18,7.49,8.39
129-6weeks,6.57,10.72,10.23,6.82,2.98,6.11,6.69,7.23,8.16
129-12months,6.56,10.84,10.5,7.42,3.01,5.81,8.82,7.62,8.39
130-0weeks,8.81,12.53,11.23,9.41,4.22,6.35,9.34,9,9.78
130-6weeks,7.23,11.23,11.02,7.9,3.74,6.68,6.79,8.5,8.45
130-12months,7.22,11.19,10.99,7.69,3.77,6.68,6.73,8.59,8.45
131-0weeks,7.14,10.87,9.97,7.88,2.98,7.2,8.91,7.76,8.39
131-6weeks,7.77,11.49,10.05,9.21,3.51,6.7,10.09,7.97,8.53
131-12months,6.2,10.44,10.1,6.57,3.36,7.06,7.53,7.64,8.33
132-0weeks,6.7,10.89,10.11,7.5,2.28,5.97,6.95,7.16,8.13
132-6weeks,5.58,10.54,10,6.53,2.07,5.65,5.77,7.16,8.13
132-12months,5.78,10.29,10.08,6.34,2.81,5.54,6.03,7.1,8.12
133-0weeks,7.33,10.6,10.47,6.81,2.17,6.29,7.02,8.09,8.21
133-6weeks,8.17,12.46,10.55,9.2,2.23,6.14,9.95,8.08,8.3
133-12months,6.35,10.74,10.34,6.89,2.2,5.76,7.79,7.92,8.22
134-0weeks,7.93,11.8,10.57,9.12,3.45,6.96,9.86,8.49,8.76
134-6weeks,6.76,10.93,10.2,7.6,3.22,6.52,7.34,8.07,8.49
134-12months,7.29,11.26,10.26,8.5,3.33,7.19,8.74,8.15,8.51
135-0weeks,8.27,12.93,10.91,8.86,4.55,6.44,9.36,8.64,8.74
135-6weeks,8.18,12.73,10.75,9.03,3.88,6.16,9.25,8.55,8.71
135-12months,6.58,11.08,10.2,6.73,3.97,5.67,6.78,8.16,8.31
136-0weeks,7.42,11.57,10.75,8.71,2.49,6.26,9.31,8.05,8.56
136-6weeks,7.03,11.13,10.43,7.97,2.72,6.02,8.32,7.87,8.34
136-12months,6.22,10.54,10.06,6.93,1.75,6.44,6.98,7.79,8.21
137-0weeks,7.39,12.26,10.66,8.84,2.8,6.75,8.77,8.19,8.54
137-6weeks,7.05,12.12,10.92,8.61,2.22,6.53,8.06,8.03,8.81
138-0weeks,8.29,12.47,10.72,9.14,3.22,6.15,9.17,8.35,8.49
138-6weeks,8.09,12.41,10.6,9.15,3.66,6.68,8.89,8.59,8.57
138-12months,6.57,11.08,10.41,6.9,3.02,6.1,6.45,8.46,8.39
139-0weeks,6.79,11.16,10.39,7.82,2.24,5.83,10.24,8.11,8.51
139-6weeks,7.52,11.58,10.58,8.48,2.5,6.1,8.9,7.69,8.43
139-12months,5.93,10.53,9.96,6.69,1.92,5.58,7.11,7.42,8.14
140-0weeks,9.55,12.52,11.8,9.23,4.92,7.7,9.82,9.01,8.81
140-6weeks,8.91,12,11.39,8.86,3.91,7.19,8.42,8.59,8.6
140-12months,8.39,11.35,11.26,7.92,4.54,7.3,7.66,8.34,8.63
141-0weeks,6.37,11.08,10.55,7.62,3.19,6.11,8.31,8.25,8.34
141-6weeks,9.76,12.52,11.01,9.17,4.4,6.67,10.12,8.53,8.57
142-0weeks,7.72,11.12,11.31,7.12,4.29,6.61,6.47,8.73,8.24
142-6weeks,7.36,11.08,11.26,7.41,3.9,6.9,9.28,8.74,8.23
142-12months,7.42,10.87,11.24,6.69,4.39,6.93,6.05,8.87,8.31
143-0weeks,6.67,11.12,10.6,6.55,3.41,6.67,6.6,7.26,8.32
143-6weeks,6.71,11.31,10.62,6.98,4.5,6.96,7.92,7.3,8.46
143-12months,7.06,11.39,10.86,7.17,3.48,7.9,7.84,7.38,8.55
149-0weeks,8.58,12.9,11.3,9.42,3.82,6.75,10.12,9.15,9.23
149-6weeks,6.44,10.74,10.37,6.72,2,5.42,7.7,8.17,8.2
149-12months,8.01,11.84,10.69,8.5,2.5,6.03,8.98,8.42,8.68
150-0weeks,6.15,11.05,10.43,7.16,4.47,6.06,6.36,7.95,8.48
150-6weeks,6.75,11.18,10.27,7.84,3.03,6.03,6.97,8.2,8.27
151-0weeks,7.98,11.89,10.79,7.71,5.9,7.51,9.41,8.61,9.24
151-6weeks,6.09,10.21,10.41,5.64,2.78,6.72,5.86,8.46,8.32
151-12months,6.32,10.68,10.64,5.93,2,6.4,7.26,7.74,8.64
152-0weeks,6.93,10.95,10.46,6.62,2.64,6.32,6.17,8.12,8.16
152-6weeks,6.99,11.19,10.81,6.87,2.46,6.3,6.37,8.26,8.22
152-12months,8.13,11.55,10.5,8.23,2.2,6.84,8.97,8.29,8.18
17-12months,5.88,10.71,10.72,6.57,3.02,5.21,7.2,7.58,8.58
22-12months,6.69,10.37,11.54,8.3,2.27,6.2,8.54,7.59,8.48
27-12months,8.37,12.15,10.35,9.21,2.92,9.36,9.82,8.98,8.76
32-12months,7.12,10.93,10.25,6.99,3.5,6.02,6.65,7.57,8.35
37-12months,7.1,11.11,10.54,7.55,3.18,6.7,7.39,8.73,8.37
41-12months,7.96,11.86,10.41,8.62,3.47,5.16,7.54,8.54,8.54
56-12months,7.07,11.1,10.47,8.09,2.65,5.92,8.85,8.09,8.57
60-12months,8.66,12.43,10.75,9.6,3.54,6.8,9.76,9.76,8.86
65-12months,7.82,12.31,10.65,8.27,4.73,6.45,9.06,8.56,9.01
69-12months,9,11.94,11.52,8.56,5.34,6.94,8.27,8.68,8.77
73-12months,8.3,11.5,10.5,9.78,2.26,6.17,8.86,8.09,8.31
78-12months,6.59,10.86,10.51,6.93,2.57,5.95,5.77,7.66,8.53
95-12months,8.31,12.15,10.5,8.03,3.54,6.95,8.68,9.36,9.14
100-12months,7.16,11.04,10.38,7.52,3.02,6.47,7.01,8.3,8.34
105-12months,8.32,11.21,10.52,7.89,2.86,10.08,7.8,8.33,8.76
112-12months,6.03,10.57,10.47,6.8,3.66,5.29,7.39,7.79,8.37
118-12months,6.51,11.13,10.17,6.89,3.32,6.19,7.63,9.03,8.44
124-12months,6.25,11.04,10.02,6.39,3.55,6.07,6.74,8.23,8.62
137-12months,6.01,11.13,10.44,7.1,2.66,6.16,7.12,7.73,8.48
141-12months,5.85,10.44,10.35,6.85,2.3,5.66,5.71,7.98,8.17
150-12months,6.65,11.3,10.41,7.54,3.82,6.4,7.7,7.89,8.51
48-12months,6.18,11.23,10.4,7.03,2.9,6.25,6.79,8.75,8.44
124-6weeks,6.89,10.78,9.85,6.27,1.77,5.52,6.85,8.22,8.32
1-0weeks,8.13,12.35,10.48,8.66,2.63,6.54,9.54,8.53,8.27
1-6weeks,7.09,11.61,10.35,7.59,2.25,7.84,9.44,8.42,8.19
1-12months,8.64,12.48,10.68,8.46,2.56,6.64,9.59,8.79,8.41
3-0weeks,6.55,11.21,10.49,6.83,2.58,5.31,6.71,7.71,8.3
3-6weeks,6.4,11.2,10.61,6.65,2.25,5.51,6.62,7.79,8.35
3-12months,7.44,11.67,10.7,7.81,2.72,5.54,8.78,7.77,8.51
4-0weeks,6.47,11.13,10.72,6.9,5.62,5.46,7.73,8.02,8.19
4-6weeks,7.69,11.56,10.96,7.75,5.18,5.65,8.37,8.14,8.27
4-12months,7.22,11.5,10.83,7.41,4.33,5.75,8.24,8.19,8.18
5-0weeks,6.41,11.15,10.6,7.26,1.96,5.35,7.15,7.66,8.1
5-6weeks,6.32,11.24,10.97,6.68,3.77,5.54,6.03,7.97,8.59
5-12months,7.47,11.76,10.76,7.53,2.31,5.61,7.36,7.79,8.62
6-0weeks,6.54,11.47,10.2,7.16,3.38,6.51,7.79,8.54,8.35
6-6weeks,6.6,11.38,10.4,7.05,3.07,6.56,7.02,8.69,8.51
6-12months,6.63,11.27,10.53,7.04,3.1,6.63,7.01,9.78,8.43
7-0weeks,6.92,11.06,10.28,7.17,2.48,6.41,6.94,8.78,8.17
7-6weeks,6.37,11.08,10.36,6.61,2.51,6.13,6.67,7.8,8.19
7-12months,6.63,11.02,10.27,6.53,2.52,6.12,5.92,7.92,8.09
8-0weeks,8.32,12.85,10.41,8,3.26,6.04,8.94,8.92,8.39
8-6weeks,7.34,11.46,10.4,6.99,3.16,5.76,6.62,8.82,8.37
8-12months,8.83,13.31,10.71,8.82,3.19,6.3,9.38,9.06,8.55
9-0weeks,9.01,12.53,11.68,9.26,3.76,6.83,11.19,9.06,8.95
9-6weeks,7.61,11.83,11.24,8.7,3.37,6.34,9.39,8.55,8.68
9-12months,6.72,11.53,11.23,9.78,3.43,6.11,9.85,8.46,8.68
13-0weeks,8.67,12.23,10.43,8.34,4,6.59,9.45,9.13,8.4
13-6weeks,8.7,12.49,10.38,8.81,4.78,6.53,9.95,9.13,8.31
13-12months,7.87,11.78,10.28,7.97,3.77,6.67,8.57,9.08,8.35
14-0weeks,7.78,11.33,10.63,7.42,2.53,6.15,7.29,7.84,8.18
14-6weeks,6.98,10.96,10.51,6.53,2.41,6.05,6.27,7.68,8.22
14-12months,6.71,10.94,10.34,6.66,1.92,6.01,6.5,7.71,8.18
16-0weeks,7.24,11.26,10.49,6.91,2.71,6.85,6.99,8.95,8.56
16-6weeks,7.64,12.42,10.79,8.77,3.37,7.05,10.15,9.07,8.84
16-12months,5.55,11.28,11.06,7.71,2.98,5.94,8.14,9,8.84
17-0weeks,6.29,11.48,11.32,6.71,2.98,6.22,7.65,7.79,8.75
17-6weeks,7.89,11.76,11.36,8.68,3.37,5.99,9.87,7.8,8.89
18-0weeks,7.34,11.41,10.71,8.51,2.49,6.57,9.77,8.83,8.42
18-6weeks,7.26,11.35,10.61,8.07,3.39,6.5,9.15,8.72,8.53
18-12months,6.24,11.19,10.63,7.25,3.95,7.27,8.35,8.55,8.32
19-0weeks,11.33,12.09,11.19,8.99,4.3,11.51,10.19,8.18,9.2
19-6weeks,6.67,11.4,10.49,7.64,4.34,5.99,7.04,7.94,8.41
19-12months,7.09,11.25,10.83,7.21,3.79,6.1,6.55,8.35,8.43
21-0weeks,8.39,12.71,11.06,9,2.32,6.11,10.27,8.58,8.56
21-6weeks,6.5,10.97,10.76,7.04,2.38,5.87,7.16,8.44,8.29
21-12months,7.15,11.14,10.83,7.24,2.47,6.05,7.65,8.33,8.33
22-0weeks,7.78,10.68,11.18,6.59,2.22,9.43,7.61,7.94,8.36
22-6weeks,7.89,12.5,11.96,9.22,3.44,6.54,9.7,7.68,8.85
23-0weeks,8.82,12.66,10.66,8.37,2.4,6.53,9.54,8,8.64
23-6weeks,8.45,12.96,10.82,8.72,4.78,6.62,10.08,8.19,8.83
23-12months,8.67,12.61,10.9,9.16,3.04,6.86,9.68,8.01,8.76
25-0weeks,6.76,11.1,10.72,6.86,2.81,6.87,7.98,8.16,8.19
25-6weeks,7.11,11.36,10.63,7.35,3.05,6.34,9.53,8.14,8.2
25-12months,6.95,11,10.57,7.02,2.88,6.46,7.89,8.18,8.04
26-0weeks,7.18,11.17,10.41,7.96,2.72,6.65,8.04,7.67,8.33
26-6weeks,8.36,12.52,10.68,9.48,2.91,7.04,10.07,8.23,8.66
26-12months,6.47,11.14,10.29,6.99,3.28,6.34,6.77,8.78,8.32
27-0weeks,6.46,11.15,10.57,7.06,2.54,7.62,7.7,9.38,8.54
27-6weeks,5.89,11.02,10.25,6.75,2.28,6.99,7.42,8.77,8.37
28-0weeks,8.29,12.39,11.14,8.59,2.97,5.54,9.92,8.12,8.39
28-6weeks,6.37,10.89,11.13,6.6,3.06,5.3,7.31,7.89,8.23
28-12months,8.15,12.48,11.84,8.44,2.56,6.09,9.58,8.32,8.77
29-0weeks,7.41,11.81,10.49,7.8,2.98,6.5,8.14,8.87,8.67
29-6weeks,7.17,11.49,10.64,7.32,2.53,5.99,7.97,8.47,8.58
29-12months,7.3,11.52,10.25,7.67,1.6,5.7,7.86,8.14,8.34
31-0weeks,7.93,12.56,11.57,9.58,4.61,6.91,9.58,9.75,8.6
31-6weeks,8.22,12.01,11.25,8.53,5.78,6.28,9.78,9.48,8.32
31-12months,7.48,11.8,11.45,7.82,4.34,6.08,7.97,9.48,8.33
32-0weeks,8.24,11.77,10.6,8.41,3.72,6.33,9,7.99,8.36
32-6weeks,6.81,11.22,10.49,7.38,2.55,6.36,6.89,7.98,8.39
34-0weeks,8.58,12.02,11.78,7.92,2.71,6.3,9.07,8.69,8.49
34-6weeks,7.08,11.34,10.79,7.29,2.84,6.87,7.93,9.08,8.49
34-12months,7.18,11.25,10.76,7.18,2.47,6.02,6.74,8.9,8.41
35-0weeks,8.14,12.61,11.85,9.55,4.83,6.81,10.21,9.27,9.28
35-6weeks,7.39,11.7,11.77,7.79,5.36,6.16,8.7,8.4,9.06
35-12months,6.81,11.2,11.09,7.37,2.67,5.93,9.17,8.21,8.84
36-0weeks,7.72,12.25,10.19,9.01,2.67,6.11,9.41,8.1,8.58
36-12months,6.08,11.17,9.93,6.66,2.57,5.79,6.69,7.93,8.3
37-0weeks,8.8,12.18,10.97,8.94,3.4,7.29,9.28,8.9,8.7
37-6weeks,6.58,11.2,10.55,7.03,3.1,5.89,7.19,8.35,8.27
38-0weeks,8.37,11.71,10.84,8.11,4.18,7.2,9.8,9.35,8.86
38-6weeks,8.64,11.86,10.79,9,3.22,6.6,10,9.18,8.83
38-12months,8.36,11.54,10.65,8.63,2.58,5.91,9.48,8.91,8.56
39-0weeks,6.64,11.6,10.84,6.92,2.81,6.96,6.94,8.2,8.39
39-6weeks,8.37,12.69,11.15,8.66,3.17,7.07,9.07,8.47,8.69
39-12months,7.65,12.22,10.77,8.56,4.6,7.09,8.83,8.16,8.4
40-6weeks,6.69,11.28,10.84,7.38,2.32,5.84,7.62,8.61,8.27
40-12months,7.37,12.67,11,8.48,2.46,6.13,9.11,9.19,8.51
41-0weeks,8.86,12.85,10.81,9.17,5.13,5.55,9.27,8.76,8.67
41-6weeks,8.37,12.68,10.63,8.76,4.22,5.79,8.37,8.64,8.64
42-0weeks,7.08,11.59,10.55,7.47,2.54,7.2,7.68,7.58,8.56
42-6weeks,8.24,12.47,10.74,8.91,2.89,7.97,9.98,7.87,8.73
42-12months,7.04,11.75,10.59,7.89,2.66,6.96,8.4,8.01,8.58
43-0weeks,7.79,12.35,11.14,8.46,3.24,6.83,8.99,8.61,8.72
43-6weeks,8.17,12.87,11.03,9.08,3.07,7.78,9.86,8.15,8.72
43-12months,7.04,11.62,10.81,7.89,2.49,6.3,8.92,7.99,8.69
45-0weeks,8.11,13.1,10.87,9.32,3.07,6.39,10.49,7.69,8.72
45-6weeks,7.78,12.23,10.66,8.17,2.48,6.07,8.96,8.74,8.66
45-12months,8.35,13.2,10.6,9.16,2.48,6.29,10.45,7.81,8.68
46-0weeks,8.11,11.64,11.78,8.95,2.8,6.77,9.01,8.46,9
46-6weeks,7.35,11.3,10.45,8.22,3.12,6.69,8.51,8.09,8.73
46-12months,6.59,10.99,10.24,7.14,2.38,6.15,7.59,7.96,8.59
47-0weeks,8.27,12.28,10.86,9.1,3.25,5.63,9.96,9.04,8.81
47-6weeks,8.96,12.32,10.9,9.34,3.45,5.87,9.93,9.13,8.82
47-12months,6.86,10.99,10.69,6.71,3.06,5.33,6.49,8.99,8.65
48-0weeks,7.56,12.46,10.52,8.94,3.08,10.78,9.35,9.07,8.92
48-6weeks,6.35,11.67,10.6,7.07,2.93,6.44,7.06,8.82,8.71
49-0weeks,8.3,13.13,11.19,8.84,3.71,7.04,9.28,8.12,8.8
50-0weeks,8.5,12.27,10.59,8.8,2.44,6.59,8.89,8.03,8.5
50-6weeks,7.61,11.43,10.43,7.65,2.59,6.25,7.9,8.13,8.44
50-12months,7.85,11.86,10.51,8.04,3.78,6.92,8.36,8.29,8.7
51-0weeks,7.58,11.71,10.52,9.78,2.94,6.06,9.55,8.49,8.66
51-6weeks,7.2,11.32,10.79,8.23,2.44,5.73,8.18,8.45,8.51
51-12months,6.55,11.18,10.71,7.28,2.25,5.66,6.25,8.58,8.46
54-0weeks,8.74,12.65,10.94,9.24,2.76,6.61,10.06,8.78,8.89
54-6weeks,9.02,12.72,11.37,8.98,2.72,7.24,9.93,8.2,8.76
54-12months,8.56,12.42,10.66,8.9,2.63,6.63,9.66,7.73,8.55
55-0weeks,7.23,11.68,10.58,8.35,3.41,7.09,7.43,8.16,8.58
55-6weeks,8.17,12.53,10.77,9.6,3.08,7.07,9.4,8.44,8.95
55-12months,6.49,11.36,10.41,7.28,3.47,6.6,6.93,7.97,8.73
56-0weeks,7.77,11.71,10.8,9.46,2.56,6.44,10.1,8.41,8.72
56-6weeks,7.9,11.62,10.57,9.35,2.36,6.12,10.12,8.36,8.54
57-0weeks,7.79,11.64,11.24,8.25,3.17,7.48,9.59,7.48,8.53
57-6weeks,7.91,11.63,11.03,8.29,2.68,6.63,9.73,7.43,8.79
57-12months,6.52,11.08,11.33,7.23,2.81,6.12,9.01,7.43,8.39
58-0weeks,7.24,11.58,10.36,8.1,1.81,5.9,9.29,7.32,8.61
58-6weeks,6.62,10.86,10.36,8.04,1.81,6.63,7.67,6.87,8.36
58-12months,6.94,11.15,10.41,8.33,2.01,5.74,8.11,7.06,8.55
59-0weeks,6.75,10.7,9.67,6.73,1.88,5.52,6.44,7.26,7.95
59-6weeks,8.4,12.38,10.66,9.36,3.19,6.67,8.56,8.3,8.73
59-12months,7,11.08,10.14,6.76,2.48,6.03,5.98,7.74,8.29
60-0weeks,6.67,11.14,10.6,6.92,3.15,5.99,6.88,9.27,8.7
60-6weeks,6.72,10.92,9.79,7.47,2.34,5.51,7.39,8.52,8.27
61-0weeks,6.63,10.87,10.9,6.57,2.31,5.94,7.67,6.89,8.23
61-6weeks,6.72,11.15,11.46,7,3.49,5.85,8.68,7,8.46
61-12months,6.84,11.04,11.44,7.01,2.55,5.67,8.11,6.7,8.33
62-0weeks,7.61,12.01,11.36,8.64,3.49,7.1,8.74,7.98,8.98
62-6weeks,7.81,11.96,11.62,9.19,3.03,6.22,9.51,7.83,9.06
62-12months,6.9,11.07,10.95,7.12,3.47,6.06,6.69,7.87,8.25
64-0weeks,7.71,12.15,10.7,9.44,3.23,6.15,10,8.02,8.83
64-6weeks,6.6,11.17,10.69,6.89,3.74,6.27,8.79,7.98,8.54
64-12months,7.86,11.73,10.67,8.94,3.96,6.01,9.76,7.89,8.7
65-0weeks,6.8,11.5,10.54,7.55,2.53,6.56,7.9,8.69,8.75
65-6weeks,6.58,11.17,10.56,6.96,3.55,6.41,6.96,8.58,8.73
66-0weeks,5.5,10.91,9.8,6.95,2.1,5.25,6.46,8.78,8.18
66-6weeks,7.38,11.63,9.96,9.28,2.14,6.34,9.44,8.16,8.49
66-12months,7.45,11.62,10.3,8.98,2.2,5.99,9.11,8.29,8.55
67-0weeks,8.25,12.66,10.51,9,3.1,5.92,9.73,8.12,8.49
67-6weeks,8.57,12.63,10.6,8.86,2.99,5.92,9.64,8.15,8.46
67-12months,9.16,13.07,10.81,9.13,3.57,6.26,10.32,8.23,8.64
68-0weeks,8.59,12.42,10.89,9.09,3.03,6.68,9.32,8.55,8.81
68-6weeks,7.47,11.46,10.6,7.16,3.52,6.57,6.85,8.47,8.69
68-12months,7.34,11.43,10.62,7.2,3.31,6.18,6.72,8.45,8.69
69-0weeks,10.19,12.95,11.81,9.45,5.24,7.5,9.71,9.01,9.05
69-6weeks,8.86,11.8,11.31,8.3,5.17,6.95,7.98,9.04,8.83
70-0weeks,7.58,12.43,11.23,9.33,2.1,6.77,9.23,7.12,8.8
70-6weeks,7.75,12.46,11.2,9.32,2.08,6.72,9.31,7.19,8.9
70-12months,6.33,11.18,11.37,6.88,1.84,6.27,6.9,6.76,8.56
71-0weeks,8.09,13.21,10.55,9.54,6.37,6.18,10.27,8.59,8.87
71-6weeks,5.83,11.22,10.35,7.06,6.11,5.69,6.66,8.48,8.71
71-12months,7.46,11.89,10.61,7.75,6.15,5.98,8.35,8.42,8.67
72-0weeks,8.15,11.26,10.45,8.45,3.31,6.91,9.02,9.78,8.82
72-6weeks,8.54,11.49,10.68,8.52,3.17,7.07,8.93,9.1,8.93
72-12months,9.27,11.68,10.86,9.45,3.29,7.16,10.08,8.84,8.92
73-0weeks,7.9,11.74,10.56,9.29,2.23,6.75,9.09,8.13,8.57
73-6weeks,6.76,11.15,10.55,7.54,2.62,6.14,7.34,7.93,8.42
75-0weeks,7.77,12.57,10.8,9.91,3.53,7.25,9.69,8.26,8.9
75-6weeks,6.26,11.43,10.35,7,3.39,6.64,7.09,8.12,8.82
75-12months,6.93,11.53,10.54,8.08,3.26,6.7,7.99,8.01,8.74
76-0weeks,8.08,13.24,10.55,8.33,2.84,7.05,8.66,8.36,8.93
76-6weeks,7.99,12.84,10.37,8.56,3.22,6.85,8.45,8.25,8.88
76-12months,8.31,13.6,10.61,9.17,3.44,7.39,8.93,8.43,9.01
77-0weeks,7.97,12.14,10.81,8.1,2.56,5.98,9.22,7.61,8.65
77-6weeks,6.14,11.15,10.03,7.03,1.86,4.61,5.68,6.76,8.25
77-12months,6.33,10.91,10.63,7.14,2.28,5.6,7.36,7.24,8.4
78-0weeks,6.97,11.94,11.08,6.86,4.58,7.29,7,8.06,9.26
78-6weeks,6.44,11.33,10.38,6.54,2.61,5.99,5.96,7.53,8.64
80-0weeks,7.58,11.78,10.63,7.47,3.67,7.45,7.94,9.54,8.84
80-6weeks,6.53,11.44,10.5,6.95,4.02,6.51,6.89,9.26,8.79
80-12months,7.3,11.62,10.29,7.4,5.22,6.48,7.83,9.47,8.82
81-0weeks,7.99,13.51,10.35,9.42,4.17,5.81,9.67,8.39,8.84
81-6weeks,8.28,13.4,10.56,9.32,4.78,7.47,9.18,9.05,8.76
81-12months,6.81,11.78,10.37,7.05,3.7,6.26,6.82,8.15,9.01
83-0weeks,7.43,12.54,10.63,8.92,4.8,7.12,9.04,8.09,8.8
83-6weeks,7.37,12.22,10.63,8.94,4.21,6.65,8.61,8.05,8.71
83-12months,7.65,12.65,10.68,9.31,5.13,6.15,9.12,8.13,8.74
84-0weeks,7.81,11.62,11.04,8,2.94,5.54,8.27,8.72,8.47
84-6weeks,7.79,11.51,10.84,8.18,3.13,5.28,8.45,8.75,8.52
84-12months,7.65,11.61,10.75,8.05,2.91,5.57,8.7,8.54,8.43
85-0weeks,6.2,11.44,9.89,6.95,2.74,5.91,6.68,7.76,8.63
85-6weeks,7.82,12.31,10.27,8.68,2.85,6.32,9.35,7.93,8.72
85-12months,7.58,12.41,10.17,9.17,3.09,6.73,9.87,7.91,8.86
86-0weeks,8.48,12.14,10.87,8.89,3.44,6.45,10.04,7.91,8.53
86-6weeks,7.85,11.37,10.95,7.84,2.91,6,8.6,7.77,8.53
86-12months,8.84,12.03,10.94,8.37,3.1,6.23,10.04,7.67,8.51
88-0weeks,7.15,11.78,10.59,8.43,2.74,5.64,8.43,7.81,8.35
88-6weeks,8.39,12.89,10.55,9.12,3.47,5.72,9.97,8,8.3
88-12months,8.42,12.84,10.48,9.25,2.97,5.8,10.1,7.99,8.34
90-0weeks,8.49,12.28,11.74,9.23,7.91,6.39,10.09,8.13,8.58
90-6weeks,6.74,11.33,11.4,7.08,7.95,6.15,5.9,7.95,8.39
90-12months,7.99,11.46,11.31,8.33,7.44,6.53,7.56,7.92,8.36
91-0weeks,8.04,11.96,10.48,8.64,2.64,7.15,8.93,8.34,8.35
91-6weeks,6.81,11.07,10.76,6.86,3.54,8.2,7.33,9.62,8.45
91-12months,6.4,11.2,10.41,7,2.92,7.58,8.74,8.35,8.34
92-0weeks,8.55,12.23,10.36,8.87,3.44,5.86,9.79,8.36,8.45
92-6weeks,6.69,10.95,10.46,6.96,3.37,5.47,7.32,8.41,8.3
92-12months,6.22,10.87,9.98,6.75,2.74,5.65,7.14,8.08,8.19
94-0weeks,9.11,12.84,10.73,9.31,2.98,6.14,9.85,8.63,8.52
94-6weeks,8.82,12.17,10.57,8.3,2.72,6.03,8.91,8.63,8.41
94-12months,6.79,11.6,10.74,7.45,3.13,5.85,9.07,8.67,8.59
95-0weeks,6.73,11.74,10.91,6.96,4.35,5.88,6.24,9.35,9.1
95-6weeks,6.82,11.28,10.79,7.02,3.44,5.56,6.8,8.96,8.52
96-0weeks,8.71,11.67,10.94,8.54,3.22,7.76,9.32,7.97,8.51
96-6weeks,6.77,11.24,10.55,6.73,2.58,9.17,6.56,7.91,8.24
96-12months,6.92,11.14,10.67,7.62,2.52,7.25,7.56,7.72,8.21
98-0weeks,7.86,11.59,10.53,8.51,3.26,7.1,9.08,9.78,8.54
98-6weeks,6.05,10.75,10.25,6.68,2.86,6.24,7.04,8.43,8.23
98-12months,6.09,10.92,10.14,6.93,3.01,6.43,8.16,8.34,8.19
99-0weeks,8.03,12.26,10.74,8.39,4.83,7.47,8.83,8.74,8.62
99-6weeks,8.14,11.91,10.64,8.49,3.19,7.33,8.45,8.6,8.38
99-12months,6.76,11.19,10.73,7.23,3.22,6.99,7.92,8.44,8.27
100-0weeks,7.47,11.5,10.69,8.07,2.91,6.85,7.91,8.66,8.31
100-6weeks,7.7,11.5,10.7,7.93,3,6.89,7.91,8.86,8.29
101-0weeks,8.66,11.84,10.62,8.31,4.9,8.17,9.34,9.56,8.89
101-6weeks,9.43,12.32,10.71,9.08,4.21,7.41,9.94,9.03,8.7
101-12months,8.07,11.9,10.36,8.57,4.47,6.73,9.06,8.56,8.56
102-0weeks,8.47,12.09,10.94,8.61,4.78,6.9,9.69,8.39,8.53
102-6weeks,8.88,12.08,11.78,9.1,3.09,7.81,9.59,8.93,8.45
102-12months,7.7,11.72,10.66,8.32,4.47,7.2,8.86,8.46,8.55
104-0weeks,7.01,11.14,10.38,6.77,4.17,6.27,7.1,8.59,8.61
104-6weeks,7.42,11.41,10.53,7.43,3.95,6.51,7.57,8.95,8.62
104-12months,7.18,11.41,10.59,7.02,3.72,6.36,8.43,8.88,8.58
105-0weeks,6.85,10.85,10.26,7.27,2.44,6.74,6.42,7.96,8.34
105-6weeks,8.53,11.58,10.66,9.12,2.73,7.55,9.14,8.35,8.56
108-0weeks,7.78,11.42,10.8,7.56,2.53,6.66,7.53,7.42,8.6
108-6weeks,8.01,11.76,11.07,7.84,3.21,6.75,7.92,7.71,8.71
108-12months,8.08,11.71,10.99,7.35,3.34,7.1,8.19,7.73,8.72
109-0weeks,8.91,11.84,10.76,9.05,2.92,7.24,9.26,7.88,8.31
109-6weeks,7.68,11.07,10.47,7.6,2.79,7.03,7.15,7.76,8.05
109-12months,7.02,10.91,10.72,6.9,2.81,6.75,6.17,7.49,8.04
111-0weeks,8.03,11.81,10.97,8.99,2.77,6.55,9.87,8.36,8.74
111-6weeks,5.74,11.06,10.65,7.11,3.26,6.27,6.54,8.37,8.51
111-12months,6.38,10.95,10.76,7.32,2.55,6.25,6.95,8.47,8.46
112-0weeks,8.32,12.82,10.46,8.93,4.26,5.27,10.8,8.15,8.67
112-6weeks,6.04,11.39,10.44,7.57,4.12,5.3,8.97,8.09,8.62
113-0weeks,7.02,11.38,10.74,7.9,2.61,5.69,7.75,8.85,8.55
113-6weeks,6.36,11.3,10.79,7.07,2.83,5.79,7.27,8.48,8.57
113-12months,6.35,11.02,10.52,7.09,2.77,5.73,8.55,8.25,8.32
114-0weeks,6.68,10.92,10.26,6.8,3.06,7.75,7,7.7,8.38
114-6weeks,6.61,10.92,10.13,7.07,2.67,7.72,7.24,7.74,8.31
114-12months,6.12,10.75,9.87,6.57,2.52,6.23,7.1,7.36,8.04
117-0weeks,6.39,11.49,10.4,7.15,4.33,6.98,6.49,8.73,8.67
117-6weeks,6.4,11.32,10.66,7.11,3.85,5.52,7.05,8.76,8.57
118-0weeks,7.81,12.05,10.35,7.91,4.1,6.66,7.66,9.37,8.54
118-6weeks,8.3,12.13,10.31,8.23,4.08,6.53,7.91,9.34,8.54
119-0weeks,8.18,11.97,10.75,9.39,3.05,7.03,9.33,8.64,8.64
119-6weeks,6.54,10.94,10.42,7.36,2.44,6.35,6.86,8.51,8.34
119-12months,6.65,11.09,10.55,7.44,2,7.67,6.63,8.72,8.36
121-0weeks,7.01,12.53,10.91,8.74,3.08,5.95,7.61,8.27,8.52
121-6weeks,7.21,12.89,10.69,8.9,3.14,5.97,8,8.17,8.42
121-12months,6.35,11.01,9.96,6.7,2.55,4.68,7.34,7.76,8.11
122-0weeks,7.86,12.8,10.73,9.3,2.93,6.73,9.6,8.25,8.6
122-6weeks,8.52,13.04,10.81,8.79,2.94,6.73,9.64,8.19,8.64
124-0weeks,6.51,11.38,10.07,7.78,3.29,5.97,7.17,8.68,8.55
